<svg width="1440" height="91" viewBox="0 0 1440 91" fill="none" xmlns="http://www.w3.org/2000/svg">
<path d="M430 1H0V89.8393H430L480 45.4196L430 1Z" fill="#2B7A78" stroke=""/>
<path d="M67.672 54.5415H64.942V42.2175C64.942 41.5762 64.9507 40.9868 64.968 40.4495C64.9853 39.9122 65.0113 39.3922 65.046 38.8895C64.8207 39.1148 64.5867 39.3402 64.344 39.5655C64.1013 39.7735 63.824 40.0075 63.512 40.2675L61.484 41.9055L60.08 40.1375L65.384 35.9775H67.672V54.5415ZM74.6469 53.0075C74.6469 52.3315 74.8116 51.8548 75.1409 51.5775C75.4876 51.3002 75.9122 51.1615 76.4149 51.1615C76.9002 51.1615 77.3162 51.3002 77.6629 51.5775C78.0269 51.8548 78.2089 52.3315 78.2089 53.0075C78.2089 53.6835 78.0269 54.1688 77.6629 54.4635C77.3162 54.7582 76.9002 54.9055 76.4149 54.9055C75.9122 54.9055 75.4876 54.7582 75.1409 54.4635C74.8116 54.1688 74.6469 53.6835 74.6469 53.0075ZM104.448 54.5415H101.042L91.6562 39.5395H91.5522C91.5869 40.2328 91.6302 41.0302 91.6822 41.9315C91.7342 42.8155 91.7602 43.7255 91.7602 44.6615V54.5415H89.2122V35.9775H92.5922L101.952 50.9015H102.03C102.013 50.5375 101.987 50.0782 101.952 49.5235C101.935 48.9688 101.918 48.3795 101.9 47.7555C101.883 47.1142 101.866 46.5162 101.848 45.9615V35.9775H104.448V54.5415ZM111.842 40.0595C111.842 40.5102 111.824 40.9522 111.79 41.3855C111.755 41.8015 111.72 42.1482 111.686 42.4255H111.868C112.318 41.6975 112.916 41.1602 113.662 40.8135C114.424 40.4668 115.248 40.2935 116.132 40.2935C117.778 40.2935 119.035 40.7008 119.902 41.5155C120.786 42.3302 121.228 43.6302 121.228 45.4155V54.5415H118.498V45.8055C118.498 43.6215 117.536 42.5295 115.612 42.5295C114.173 42.5295 113.185 42.9628 112.648 43.8295C112.11 44.6788 111.842 45.9008 111.842 47.4955V54.5415H109.086V34.7815H111.842V40.0595ZM130.897 40.2675C132.647 40.2675 133.956 40.6575 134.823 41.4375C135.707 42.2002 136.149 43.4048 136.149 45.0515V54.5415H134.199L133.653 52.5915H133.549C132.942 53.3542 132.301 53.9175 131.625 54.2815C130.966 54.6282 130.047 54.8015 128.869 54.8015C127.603 54.8015 126.555 54.4635 125.723 53.7875C124.891 53.0942 124.475 52.0195 124.475 50.5635C124.475 49.1422 125.012 48.0588 126.087 47.3135C127.161 46.5682 128.817 46.1608 131.053 46.0915L133.445 46.0135V45.2335C133.445 44.2108 133.211 43.4915 132.743 43.0755C132.275 42.6422 131.616 42.4255 130.767 42.4255C130.056 42.4255 129.371 42.5295 128.713 42.7375C128.054 42.9455 127.421 43.1968 126.815 43.4915L125.931 41.4895C126.589 41.1428 127.343 40.8568 128.193 40.6315C129.059 40.3888 129.961 40.2675 130.897 40.2675ZM131.547 47.8595C129.952 47.9288 128.843 48.1975 128.219 48.6655C127.612 49.1162 127.309 49.7575 127.309 50.5895C127.309 51.3175 127.525 51.8462 127.959 52.1755C128.392 52.5048 128.955 52.6695 129.649 52.6695C130.723 52.6695 131.616 52.3662 132.327 51.7595C133.055 51.1528 133.419 50.2428 133.419 49.0295V47.8075L131.547 47.8595ZM132.275 34.6255C132.5 35.0068 132.803 35.4402 133.185 35.9255C133.583 36.3935 133.991 36.8615 134.407 37.3295C134.84 37.7802 135.213 38.1615 135.525 38.4735V38.7855H133.627C133.176 38.5082 132.699 38.1702 132.197 37.7715C131.711 37.3728 131.235 36.9395 130.767 36.4715C129.831 37.4248 128.895 38.1962 127.959 38.7855H126.087V38.4735C126.416 38.1442 126.78 37.7542 127.179 37.3035C127.595 36.8528 127.993 36.3935 128.375 35.9255C128.756 35.4402 129.068 35.0068 129.311 34.6255H132.275ZM130.559 59.3775C130.125 59.3775 129.753 59.2475 129.441 58.9875C129.129 58.7448 128.973 58.3462 128.973 57.7915C128.973 57.2195 129.129 56.8122 129.441 56.5695C129.753 56.3268 130.125 56.2055 130.559 56.2055C130.975 56.2055 131.339 56.3268 131.651 56.5695C131.963 56.8122 132.119 57.2195 132.119 57.7915C132.119 58.3462 131.963 58.7448 131.651 58.9875C131.339 59.2475 130.975 59.3775 130.559 59.3775ZM147.386 40.2675C149.068 40.2675 150.42 40.8742 151.442 42.0875C152.482 43.3008 153.002 45.1122 153.002 47.5215C153.002 49.8962 152.482 51.7075 151.442 52.9555C150.402 54.1862 149.042 54.8015 147.36 54.8015C146.286 54.8015 145.41 54.6108 144.734 54.2295C144.076 53.8308 143.547 53.3628 143.148 52.8255H142.966C143.018 53.1375 143.062 53.5102 143.096 53.9435C143.131 54.3595 143.148 54.7322 143.148 55.0615V60.7815H140.392V40.5275H142.628L143.018 42.3995H143.148C143.547 41.8102 144.076 41.3075 144.734 40.8915C145.41 40.4755 146.294 40.2675 147.386 40.2675ZM146.736 42.5295C145.436 42.5295 144.518 42.9108 143.98 43.6735C143.443 44.4188 143.166 45.5542 143.148 47.0795V47.4955C143.148 49.1075 143.408 50.3555 143.928 51.2395C144.448 52.1062 145.402 52.5395 146.788 52.5395C147.932 52.5395 148.782 52.0715 149.336 51.1355C149.891 50.1995 150.168 48.9775 150.168 47.4695C150.168 45.9442 149.891 44.7395 149.336 43.8555C148.782 42.9715 147.915 42.5295 146.736 42.5295ZM168.313 52.5655C168.677 52.5655 169.05 52.5395 169.431 52.4875C169.813 52.4182 170.142 52.3315 170.419 52.2275V54.3075C170.107 54.4462 169.7 54.5588 169.197 54.6455C168.712 54.7495 168.218 54.8015 167.715 54.8015C166.953 54.8015 166.251 54.6715 165.609 54.4115C164.968 54.1515 164.457 53.7008 164.075 53.0595C163.711 52.4182 163.529 51.5255 163.529 50.3815V42.6335H161.579V41.3855L163.633 40.3455L164.595 37.3815H166.285V40.5275H170.289V42.6335H166.285V50.3295C166.285 51.0922 166.467 51.6555 166.831 52.0195C167.213 52.3835 167.707 52.5655 168.313 52.5655ZM175.978 40.0595C175.978 40.5102 175.961 40.9522 175.926 41.3855C175.892 41.8015 175.857 42.1482 175.822 42.4255H176.004C176.455 41.6975 177.053 41.1602 177.798 40.8135C178.561 40.4668 179.384 40.2935 180.268 40.2935C181.915 40.2935 183.172 40.7008 184.038 41.5155C184.922 42.3302 185.364 43.6302 185.364 45.4155V54.5415H182.634V45.8055C182.634 43.6215 181.672 42.5295 179.748 42.5295C178.31 42.5295 177.322 42.9628 176.784 43.8295C176.247 44.6788 175.978 45.9008 175.978 47.4955V54.5415H173.222V34.7815H175.978V40.0595ZM201.949 47.5215C201.949 49.8442 201.351 51.6382 200.155 52.9035C198.959 54.1688 197.347 54.8015 195.319 54.8015C194.054 54.8015 192.927 54.5155 191.939 53.9435C190.969 53.3715 190.197 52.5482 189.625 51.4735C189.071 50.3815 188.793 49.0642 188.793 47.5215C188.793 45.1988 189.383 43.4135 190.561 42.1655C191.74 40.9002 193.352 40.2675 195.397 40.2675C196.68 40.2675 197.807 40.5535 198.777 41.1255C199.765 41.6802 200.537 42.4948 201.091 43.5695C201.663 44.6442 201.949 45.9615 201.949 47.5215ZM191.627 47.5215C191.627 49.0988 191.922 50.3295 192.511 51.2135C193.118 52.0975 194.071 52.5395 195.371 52.5395C196.671 52.5395 197.616 52.0975 198.205 51.2135C198.812 50.3295 199.115 49.0988 199.115 47.5215C199.115 45.9268 198.812 44.7048 198.205 43.8555C197.599 42.9888 196.645 42.5555 195.345 42.5555C194.045 42.5555 193.101 42.9888 192.511 43.8555C191.922 44.7048 191.627 45.9268 191.627 47.5215ZM196.879 34.6255C197.105 35.0068 197.408 35.4402 197.789 35.9255C198.188 36.3935 198.595 36.8615 199.011 37.3295C199.445 37.7802 199.817 38.1615 200.129 38.4735V38.7855H198.231C197.781 38.5082 197.304 38.1702 196.801 37.7715C196.316 37.3728 195.839 36.9395 195.371 36.4715C194.435 37.4248 193.499 38.1962 192.563 38.7855H190.691V38.4735C191.021 38.1442 191.385 37.7542 191.783 37.3035C192.199 36.8528 192.598 36.3935 192.979 35.9255C193.361 35.4402 193.673 35.0068 193.915 34.6255H196.879ZM212.541 40.2675C214.17 40.2675 215.418 40.6748 216.285 41.4895C217.152 42.3042 217.585 43.6128 217.585 45.4155V54.5415H214.855V45.8055C214.855 43.6215 213.893 42.5295 211.969 42.5295C210.53 42.5295 209.542 42.9542 209.005 43.8035C208.468 44.6528 208.199 45.8748 208.199 47.4695V54.5415H205.443V40.5275H207.627L208.017 42.3995H208.173C208.624 41.6715 209.239 41.1342 210.019 40.7875C210.816 40.4408 211.657 40.2675 212.541 40.2675ZM226.656 40.2675C228.511 40.2675 229.941 40.9695 230.946 42.3735H231.076L231.388 40.5275H233.624V54.7235C233.624 56.7168 233.087 58.2248 232.012 59.2475C230.955 60.2702 229.334 60.7815 227.15 60.7815C226.127 60.7815 225.191 60.7122 224.342 60.5735C223.51 60.4348 222.739 60.2182 222.028 59.9235V57.5055C223.519 58.2335 225.278 58.5975 227.306 58.5975C228.45 58.5975 229.334 58.2682 229.958 57.6095C230.582 56.9682 230.894 56.0582 230.894 54.8795V54.4115C230.894 54.1862 230.903 53.8915 230.92 53.5275C230.937 53.1635 230.955 52.8862 230.972 52.6955H230.868C230.4 53.4235 229.811 53.9608 229.1 54.3075C228.389 54.6368 227.575 54.8015 226.656 54.8015C224.888 54.8015 223.501 54.1688 222.496 52.9035C221.508 51.6208 221.014 49.8442 221.014 47.5735C221.014 45.3202 221.508 43.5435 222.496 42.2435C223.501 40.9262 224.888 40.2675 226.656 40.2675ZM227.228 42.5555C226.136 42.5555 225.295 42.9888 224.706 43.8555C224.134 44.7222 223.848 45.9702 223.848 47.5995C223.848 49.2288 224.134 50.4682 224.706 51.3175C225.295 52.1668 226.153 52.5915 227.28 52.5915C228.563 52.5915 229.499 52.2448 230.088 51.5515C230.695 50.8408 230.998 49.6882 230.998 48.0935V47.5735C230.998 45.7882 230.695 44.5055 230.088 43.7255C229.481 42.9455 228.528 42.5555 227.228 42.5555ZM249.741 52.5655C250.105 52.5655 250.478 52.5395 250.859 52.4875C251.24 52.4182 251.57 52.3315 251.847 52.2275V54.3075C251.535 54.4462 251.128 54.5588 250.625 54.6455C250.14 54.7495 249.646 54.8015 249.143 54.8015C248.38 54.8015 247.678 54.6715 247.037 54.4115C246.396 54.1515 245.884 53.7008 245.503 53.0595C245.139 52.4182 244.957 51.5255 244.957 50.3815V42.6335H243.007V41.3855L245.061 40.3455L246.023 37.3815H247.713V40.5275H251.717V42.6335H247.713V50.3295C247.713 51.0922 247.895 51.6555 248.259 52.0195C248.64 52.3835 249.134 52.5655 249.741 52.5655ZM256.054 35.1975C256.47 35.1975 256.834 35.3188 257.146 35.5615C257.458 35.8042 257.614 36.2115 257.614 36.7835C257.614 37.3382 257.458 37.7455 257.146 38.0055C256.834 38.2482 256.47 38.3695 256.054 38.3695C255.604 38.3695 255.222 38.2482 254.91 38.0055C254.616 37.7455 254.468 37.3382 254.468 36.7835C254.468 36.2115 254.616 35.8042 254.91 35.5615C255.222 35.3188 255.604 35.1975 256.054 35.1975ZM257.406 40.5275V54.5415H254.65V40.5275H257.406ZM268.832 40.2675C270.462 40.2675 271.71 40.6748 272.576 41.4895C273.443 42.3042 273.876 43.6128 273.876 45.4155V54.5415H271.146V45.8055C271.146 43.6215 270.184 42.5295 268.26 42.5295C266.822 42.5295 265.834 42.9542 265.296 43.8035C264.759 44.6528 264.49 45.8748 264.49 47.4695V54.5415H261.734V40.5275H263.918L264.308 42.3995H264.464C264.915 41.6715 265.53 41.1342 266.31 40.7875C267.108 40.4408 267.948 40.2675 268.832 40.2675ZM289.701 40.2675C291.556 40.2675 292.986 40.9695 293.991 42.3735H294.121L294.433 40.5275H296.669V54.7235C296.669 56.7168 296.132 58.2248 295.057 59.2475C294 60.2702 292.379 60.7815 290.195 60.7815C289.172 60.7815 288.236 60.7122 287.387 60.5735C286.555 60.4348 285.784 60.2182 285.073 59.9235V57.5055C286.564 58.2335 288.323 58.5975 290.351 58.5975C291.495 58.5975 292.379 58.2682 293.003 57.6095C293.627 56.9682 293.939 56.0582 293.939 54.8795V54.4115C293.939 54.1862 293.948 53.8915 293.965 53.5275C293.982 53.1635 294 52.8862 294.017 52.6955H293.913C293.445 53.4235 292.856 53.9608 292.145 54.3075C291.434 54.6368 290.62 54.8015 289.701 54.8015C287.933 54.8015 286.546 54.1688 285.541 52.9035C284.553 51.6208 284.059 49.8442 284.059 47.5735C284.059 45.3202 284.553 43.5435 285.541 42.2435C286.546 40.9262 287.933 40.2675 289.701 40.2675ZM290.273 42.5555C289.181 42.5555 288.34 42.9888 287.751 43.8555C287.179 44.7222 286.893 45.9702 286.893 47.5995C286.893 49.2288 287.179 50.4682 287.751 51.3175C288.34 52.1668 289.198 52.5915 290.325 52.5915C291.608 52.5915 292.544 52.2448 293.133 51.5515C293.74 50.8408 294.043 49.6882 294.043 48.0935V47.5735C294.043 45.7882 293.74 44.5055 293.133 43.7255C292.526 42.9455 291.573 42.5555 290.273 42.5555ZM302.392 35.1975C302.808 35.1975 303.172 35.3188 303.484 35.5615C303.796 35.8042 303.952 36.2115 303.952 36.7835C303.952 37.3382 303.796 37.7455 303.484 38.0055C303.172 38.2482 302.808 38.3695 302.392 38.3695C301.941 38.3695 301.56 38.2482 301.248 38.0055C300.953 37.7455 300.806 37.3382 300.806 36.7835C300.806 36.2115 300.953 35.8042 301.248 35.5615C301.56 35.3188 301.941 35.1975 302.392 35.1975ZM303.744 40.5275V54.5415H300.988V40.5275H303.744ZM313.506 40.2675C315.257 40.2675 316.565 40.6575 317.432 41.4375C318.316 42.2002 318.758 43.4048 318.758 45.0515V54.5415H316.808L316.262 52.5915H316.158C315.551 53.3542 314.91 53.9175 314.234 54.2815C313.575 54.6282 312.657 54.8015 311.478 54.8015C310.213 54.8015 309.164 54.4635 308.332 53.7875C307.5 53.0942 307.084 52.0195 307.084 50.5635C307.084 49.1422 307.621 48.0588 308.696 47.3135C309.771 46.5682 311.426 46.1608 313.662 46.0915L316.054 46.0135V45.2335C316.054 44.2108 315.82 43.4915 315.352 43.0755C314.884 42.6422 314.225 42.4255 313.376 42.4255C312.665 42.4255 311.981 42.5295 311.322 42.7375C310.663 42.9455 310.031 43.1968 309.424 43.4915L308.54 41.4895C309.199 41.1428 309.953 40.8568 310.802 40.6315C311.669 40.3888 312.57 40.2675 313.506 40.2675ZM314.156 47.8595C312.561 47.9288 311.452 48.1975 310.828 48.6655C310.221 49.1162 309.918 49.7575 309.918 50.5895C309.918 51.3175 310.135 51.8462 310.568 52.1755C311.001 52.5048 311.565 52.6695 312.258 52.6695C313.333 52.6695 314.225 52.3662 314.936 51.7595C315.664 51.1528 316.028 50.2428 316.028 49.0295V47.8075L314.156 47.8595ZM335.352 47.5215C335.352 49.8442 334.754 51.6382 333.558 52.9035C332.362 54.1688 330.75 54.8015 328.722 54.8015C327.456 54.8015 326.33 54.5155 325.342 53.9435C324.371 53.3715 323.6 52.5482 323.028 51.4735C322.473 50.3815 322.196 49.0642 322.196 47.5215C322.196 45.1988 322.785 43.4135 323.964 42.1655C325.142 40.9002 326.754 40.2675 328.8 40.2675C330.082 40.2675 331.209 40.5535 332.18 41.1255C333.168 41.6802 333.939 42.4948 334.494 43.5695C335.066 44.6442 335.352 45.9615 335.352 47.5215ZM325.03 47.5215C325.03 49.0988 325.324 50.3295 325.914 51.2135C326.52 52.0975 327.474 52.5395 328.774 52.5395C330.074 52.5395 331.018 52.0975 331.608 51.2135C332.214 50.3295 332.518 49.0988 332.518 47.5215C332.518 45.9268 332.214 44.7048 331.608 43.8555C331.001 42.9888 330.048 42.5555 328.748 42.5555C327.448 42.5555 326.503 42.9888 325.914 43.8555C325.324 44.7048 325.03 45.9268 325.03 47.5215ZM348.355 40.0595C348.355 40.5102 348.338 40.9522 348.303 41.3855C348.269 41.8015 348.234 42.1482 348.199 42.4255H348.381C348.832 41.6975 349.43 41.1602 350.175 40.8135C350.938 40.4668 351.761 40.2935 352.645 40.2935C354.292 40.2935 355.549 40.7008 356.415 41.5155C357.299 42.3302 357.741 43.6302 357.741 45.4155V54.5415H355.011V45.8055C355.011 43.6215 354.049 42.5295 352.125 42.5295C350.687 42.5295 349.699 42.9628 349.161 43.8295C348.624 44.6788 348.355 45.9008 348.355 47.4955V54.5415H345.599V34.7815H348.355V40.0595ZM367.41 40.2675C369.161 40.2675 370.47 40.6575 371.336 41.4375C372.22 42.2002 372.662 43.4048 372.662 45.0515V54.5415H370.712L370.166 52.5915H370.062C369.456 53.3542 368.814 53.9175 368.138 54.2815C367.48 54.6282 366.561 54.8015 365.382 54.8015C364.117 54.8015 363.068 54.4635 362.236 53.7875C361.404 53.0942 360.988 52.0195 360.988 50.5635C360.988 49.1422 361.526 48.0588 362.6 47.3135C363.675 46.5682 365.33 46.1608 367.566 46.0915L369.958 46.0135V45.2335C369.958 44.2108 369.724 43.4915 369.256 43.0755C368.788 42.6422 368.13 42.4255 367.28 42.4255C366.57 42.4255 365.885 42.5295 365.226 42.7375C364.568 42.9455 363.935 43.1968 363.328 43.4915L362.444 41.4895C363.103 41.1428 363.857 40.8568 364.706 40.6315C365.573 40.3888 366.474 40.2675 367.41 40.2675ZM368.06 47.8595C366.466 47.9288 365.356 48.1975 364.732 48.6655C364.126 49.1162 363.822 49.7575 363.822 50.5895C363.822 51.3175 364.039 51.8462 364.472 52.1755C364.906 52.5048 365.469 52.6695 366.162 52.6695C367.237 52.6695 368.13 52.3662 368.84 51.7595C369.568 51.1528 369.932 50.2428 369.932 49.0295V47.8075L368.06 47.8595ZM366.604 34.6255C366.812 35.0068 367.072 35.4402 367.384 35.9255C367.696 36.3935 368.017 36.8528 368.346 37.3035C368.676 37.7542 368.979 38.1442 369.256 38.4735V38.7855H367.41C366.994 38.4735 366.518 38.0748 365.98 37.5895C365.46 37.1042 364.958 36.6102 364.472 36.1075C364.004 35.6048 363.649 35.1975 363.406 34.8855V34.6255H366.604ZM384.004 40.2675C385.633 40.2675 386.881 40.6748 387.748 41.4895C388.615 42.3042 389.048 43.6128 389.048 45.4155V54.5415H386.318V45.8055C386.318 43.6215 385.356 42.5295 383.432 42.5295C381.993 42.5295 381.005 42.9542 380.468 43.8035C379.931 44.6528 379.662 45.8748 379.662 47.4695V54.5415H376.906V40.5275H379.09L379.48 42.3995H379.636C380.087 41.6715 380.702 41.1342 381.482 40.7875C382.279 40.4408 383.12 40.2675 384.004 40.2675ZM398.119 40.2675C399.974 40.2675 401.404 40.9695 402.409 42.3735H402.539L402.851 40.5275H405.087V54.7235C405.087 56.7168 404.55 58.2248 403.475 59.2475C402.418 60.2702 400.797 60.7815 398.613 60.7815C397.59 60.7815 396.654 60.7122 395.805 60.5735C394.973 60.4348 394.202 60.2182 393.491 59.9235V57.5055C394.982 58.2335 396.741 58.5975 398.769 58.5975C399.913 58.5975 400.797 58.2682 401.421 57.6095C402.045 56.9682 402.357 56.0582 402.357 54.8795V54.4115C402.357 54.1862 402.366 53.8915 402.383 53.5275C402.4 53.1635 402.418 52.8862 402.435 52.6955H402.331C401.863 53.4235 401.274 53.9608 400.563 54.3075C399.852 54.6368 399.038 54.8015 398.119 54.8015C396.351 54.8015 394.964 54.1688 393.959 52.9035C392.971 51.6208 392.477 49.8442 392.477 47.5735C392.477 45.3202 392.971 43.5435 393.959 42.2435C394.964 40.9262 396.351 40.2675 398.119 40.2675ZM398.691 42.5555C397.599 42.5555 396.758 42.9888 396.169 43.8555C395.597 44.7222 395.311 45.9702 395.311 47.5995C395.311 49.2288 395.597 50.4682 396.169 51.3175C396.758 52.1668 397.616 52.5915 398.743 52.5915C400.026 52.5915 400.962 52.2448 401.551 51.5515C402.158 50.8408 402.461 49.6882 402.461 48.0935V47.5735C402.461 45.7882 402.158 44.5055 401.551 43.7255C400.944 42.9455 399.991 42.5555 398.691 42.5555Z" fill="#323232"/>
<path d="M480 45.4196L430 1H910L960 45.4196L910 89.8393H430L480 45.4196Z" fill="#EDF4F9" stroke="#117182"/>
<path d="M515.676 55H503.196V52.868L507.98 48.006C508.916 47.0527 509.696 46.2293 510.32 45.536C510.944 44.8253 511.412 44.1493 511.724 43.508C512.036 42.8493 512.192 42.1387 512.192 41.376C512.192 40.44 511.915 39.7293 511.36 39.244C510.805 38.7587 510.086 38.516 509.202 38.516C508.353 38.516 507.59 38.672 506.914 38.984C506.238 39.296 505.536 39.7467 504.808 40.336L503.326 38.49C504.071 37.866 504.921 37.3287 505.874 36.878C506.827 36.41 507.963 36.176 509.28 36.176C511.048 36.176 512.435 36.6267 513.44 37.528C514.463 38.4293 514.974 39.634 514.974 41.142C514.974 42.13 514.775 43.0487 514.376 43.898C513.977 44.73 513.414 45.562 512.686 46.394C511.958 47.226 511.1 48.1187 510.112 49.072L506.654 52.426V52.556H515.676V55ZM518.647 53.466C518.647 52.79 518.812 52.3133 519.141 52.036C519.488 51.7587 519.912 51.62 520.415 51.62C520.9 51.62 521.316 51.7587 521.663 52.036C522.027 52.3133 522.209 52.79 522.209 53.466C522.209 54.142 522.027 54.6273 521.663 54.922C521.316 55.2167 520.9 55.364 520.415 55.364C519.912 55.364 519.488 55.2167 519.141 54.922C518.812 54.6273 518.647 54.142 518.647 53.466ZM541.142 38.594C539.288 38.594 537.84 39.2353 536.8 40.518C535.76 41.7833 535.24 43.5253 535.24 45.744C535.24 47.9453 535.726 49.6787 536.696 50.944C537.667 52.2093 539.14 52.842 541.116 52.842C541.914 52.842 542.676 52.7727 543.404 52.634C544.15 52.478 544.904 52.2787 545.666 52.036V54.454C544.938 54.7313 544.193 54.9307 543.43 55.052C542.685 55.1907 541.801 55.26 540.778 55.26C538.872 55.26 537.294 54.87 536.046 54.09C534.798 53.2927 533.862 52.1833 533.238 50.762C532.614 49.3233 532.302 47.642 532.302 45.718C532.302 43.846 532.64 42.1907 533.316 40.752C534.01 39.3133 535.015 38.1953 536.332 37.398C537.65 36.5833 539.262 36.176 541.168 36.176C542.104 36.176 543.014 36.28 543.898 36.488C544.8 36.6787 545.623 36.956 546.368 37.32L545.328 39.66C544.722 39.3827 544.063 39.14 543.352 38.932C542.659 38.7067 541.922 38.594 541.142 38.594ZM552.109 40.518C552.109 40.9687 552.092 41.4107 552.057 41.844C552.023 42.26 551.988 42.6067 551.953 42.884H552.135C552.586 42.156 553.184 41.6187 553.929 41.272C554.692 40.9253 555.515 40.752 556.399 40.752C558.046 40.752 559.303 41.1593 560.169 41.974C561.053 42.7887 561.495 44.0887 561.495 45.874V55H558.765V46.264C558.765 44.08 557.803 42.988 555.879 42.988C554.441 42.988 553.453 43.4213 552.915 44.288C552.378 45.1373 552.109 46.3593 552.109 47.954V55H549.353V35.24H552.109V40.518ZM578.08 47.98C578.08 50.3027 577.482 52.0967 576.286 53.362C575.09 54.6273 573.478 55.26 571.45 55.26C570.185 55.26 569.058 54.974 568.07 54.402C567.1 53.83 566.328 53.0067 565.756 51.932C565.202 50.84 564.924 49.5227 564.924 47.98C564.924 45.6573 565.514 43.872 566.692 42.624C567.871 41.3587 569.483 40.726 571.528 40.726C572.811 40.726 573.938 41.012 574.908 41.584C575.896 42.1387 576.668 42.9533 577.222 44.028C577.794 45.1027 578.08 46.42 578.08 47.98ZM567.758 47.98C567.758 49.5573 568.053 50.788 568.642 51.672C569.249 52.556 570.202 52.998 571.502 52.998C572.802 52.998 573.747 52.556 574.336 51.672C574.943 50.788 575.246 49.5573 575.246 47.98C575.246 46.3853 574.943 45.1633 574.336 44.314C573.73 43.4473 572.776 43.014 571.476 43.014C570.176 43.014 569.232 43.4473 568.642 44.314C568.053 45.1633 567.758 46.3853 567.758 47.98ZM571.45 59.836C571.017 59.836 570.644 59.706 570.332 59.446C570.02 59.2033 569.864 58.8047 569.864 58.25C569.864 57.678 570.02 57.2707 570.332 57.028C570.644 56.7853 571.017 56.664 571.45 56.664C571.866 56.664 572.23 56.7853 572.542 57.028C572.854 57.2707 573.01 57.678 573.01 58.25C573.01 58.8047 572.854 59.2033 572.542 59.446C572.23 59.706 571.866 59.836 571.45 59.836ZM588.672 40.726C590.301 40.726 591.549 41.1333 592.416 41.948C593.283 42.7627 593.716 44.0713 593.716 45.874V55H590.986V46.264C590.986 44.08 590.024 42.988 588.1 42.988C586.661 42.988 585.673 43.4127 585.136 44.262C584.599 45.1113 584.33 46.3333 584.33 47.928V55H581.574V40.986H583.758L584.148 42.858H584.304C584.755 42.13 585.37 41.5927 586.15 41.246C586.947 40.8993 587.788 40.726 588.672 40.726ZM611.699 40.726C613.38 40.726 614.732 41.3327 615.755 42.546C616.795 43.7593 617.315 45.5707 617.315 47.98C617.315 50.3547 616.795 52.166 615.755 53.414C614.715 54.6447 613.354 55.26 611.673 55.26C610.598 55.26 609.723 55.0693 609.047 54.688C608.388 54.2893 607.86 53.8213 607.461 53.284H607.279C607.331 53.596 607.374 53.9687 607.409 54.402C607.444 54.818 607.461 55.1907 607.461 55.52V61.24H604.705V40.986H606.941L607.331 42.858H607.461C607.86 42.2687 608.388 41.766 609.047 41.35C609.723 40.934 610.607 40.726 611.699 40.726ZM611.049 42.988C609.749 42.988 608.83 43.3693 608.293 44.132C607.756 44.8773 607.478 46.0127 607.461 47.538V47.954C607.461 49.566 607.721 50.814 608.241 51.698C608.761 52.5647 609.714 52.998 611.101 52.998C612.245 52.998 613.094 52.53 613.649 51.594C614.204 50.658 614.481 49.436 614.481 47.928C614.481 46.4027 614.204 45.198 613.649 44.314C613.094 43.43 612.228 42.988 611.049 42.988ZM623.584 40.518C623.584 40.9687 623.567 41.4107 623.532 41.844C623.497 42.26 623.463 42.6067 623.428 42.884H623.61C624.061 42.156 624.659 41.6187 625.404 41.272C626.167 40.9253 626.99 40.752 627.874 40.752C629.521 40.752 630.777 41.1593 631.644 41.974C632.528 42.7887 632.97 44.0887 632.97 45.874V55H630.24V46.264C630.24 44.08 629.278 42.988 627.354 42.988C625.915 42.988 624.927 43.4213 624.39 44.288C623.853 45.1373 623.584 46.3593 623.584 47.954V55H620.828V35.24H623.584V40.518ZM654.209 39.114C654.053 39.9807 653.81 40.7867 653.481 41.532C653.152 42.26 652.649 42.8753 651.973 43.378C651.314 43.8807 650.413 44.2013 649.269 44.34V55H647.059L646.669 53.154H646.539C646.071 53.882 645.447 54.4193 644.667 54.766C643.887 55.0953 643.055 55.26 642.171 55.26C640.524 55.26 639.259 54.8527 638.375 54.038C637.508 53.2233 637.075 51.932 637.075 50.164V41.012H639.857V49.748C639.857 51.9147 640.802 52.998 642.691 52.998C644.13 52.998 645.126 52.5733 645.681 51.724C646.236 50.8747 646.513 49.6613 646.513 48.084V41.012H649.269V42.52C650.032 42.364 650.543 41.9567 650.803 41.298C651.063 40.6393 651.193 39.816 651.193 38.828H654.027L654.209 39.114ZM667.735 47.98C667.735 50.3027 667.137 52.0967 665.941 53.362C664.745 54.6273 663.133 55.26 661.105 55.26C659.839 55.26 658.713 54.974 657.725 54.402C656.754 53.83 655.983 53.0067 655.411 51.932C654.856 50.84 654.579 49.5227 654.579 47.98C654.579 45.6573 655.168 43.872 656.347 42.624C657.525 41.3587 659.137 40.726 661.183 40.726C663.089 40.726 664.632 41.3153 665.811 42.494C666.556 42.2687 667.041 41.8267 667.267 41.168C667.492 40.5093 667.605 39.738 667.605 38.854H670.439L670.621 39.14C670.378 40.3533 669.988 41.3847 669.451 42.234C668.931 43.0833 668.081 43.6987 666.903 44.08C667.163 44.6173 667.362 45.2153 667.501 45.874C667.657 46.5153 667.735 47.2173 667.735 47.98ZM657.413 47.98C657.413 49.6267 657.707 50.8747 658.297 51.724C658.886 52.5733 659.839 52.998 661.157 52.998C662.474 52.998 663.427 52.5733 664.017 51.724C664.606 50.8747 664.901 49.6267 664.901 47.98C664.901 46.3333 664.597 45.094 663.991 44.262C663.401 43.43 662.448 43.014 661.131 43.014C659.813 43.014 658.86 43.43 658.271 44.262C657.699 45.094 657.413 46.3333 657.413 47.98ZM678.986 40.726C680.616 40.726 681.864 41.1333 682.73 41.948C683.597 42.7627 684.03 44.0713 684.03 45.874V55H681.3V46.264C681.3 44.08 680.338 42.988 678.414 42.988C676.976 42.988 675.988 43.4127 675.45 44.262C674.913 45.1113 674.644 46.3333 674.644 47.928V55H671.888V40.986H674.072L674.462 42.858H674.618C675.069 42.13 675.684 41.5927 676.464 41.246C677.262 40.8993 678.102 40.726 678.986 40.726ZM693.101 40.726C694.956 40.726 696.386 41.428 697.391 42.832H697.521L697.833 40.986H700.069V55.182C700.069 57.1753 699.532 58.6833 698.457 59.706C697.4 60.7287 695.779 61.24 693.595 61.24C692.573 61.24 691.637 61.1707 690.787 61.032C689.955 60.8933 689.184 60.6767 688.473 60.382V57.964C689.964 58.692 691.723 59.056 693.751 59.056C694.895 59.056 695.779 58.7267 696.403 58.068C697.027 57.4267 697.339 56.5167 697.339 55.338V54.87C697.339 54.6447 697.348 54.35 697.365 53.986C697.383 53.622 697.4 53.3447 697.417 53.154H697.313C696.845 53.882 696.256 54.4193 695.545 54.766C694.835 55.0953 694.02 55.26 693.101 55.26C691.333 55.26 689.947 54.6273 688.941 53.362C687.953 52.0793 687.459 50.3027 687.459 48.032C687.459 45.7787 687.953 44.002 688.941 42.702C689.947 41.3847 691.333 40.726 693.101 40.726ZM693.673 43.014C692.581 43.014 691.741 43.4473 691.151 44.314C690.579 45.1807 690.293 46.4287 690.293 48.058C690.293 49.6873 690.579 50.9267 691.151 51.776C691.741 52.6253 692.599 53.05 693.725 53.05C695.008 53.05 695.944 52.7033 696.533 52.01C697.14 51.2993 697.443 50.1467 697.443 48.552V48.032C697.443 46.2467 697.14 44.964 696.533 44.184C695.927 43.404 694.973 43.014 693.673 43.014ZM716.186 53.024C716.55 53.024 716.923 52.998 717.304 52.946C717.686 52.8767 718.015 52.79 718.292 52.686V54.766C717.98 54.9047 717.573 55.0173 717.07 55.104C716.585 55.208 716.091 55.26 715.588 55.26C714.826 55.26 714.124 55.13 713.482 54.87C712.841 54.61 712.33 54.1593 711.948 53.518C711.584 52.8767 711.402 51.984 711.402 50.84V43.092H709.452V41.844L711.506 40.804L712.468 37.84H714.158V40.986H718.162V43.092H714.158V50.788C714.158 51.5507 714.34 52.114 714.704 52.478C715.086 52.842 715.58 53.024 716.186 53.024ZM723.852 40.518C723.852 40.9687 723.834 41.4107 723.8 41.844C723.765 42.26 723.73 42.6067 723.696 42.884H723.878C724.328 42.156 724.926 41.6187 725.672 41.272C726.434 40.9253 727.258 40.752 728.142 40.752C729.788 40.752 731.045 41.1593 731.912 41.974C732.796 42.7887 733.238 44.0887 733.238 45.874V55H730.508V46.264C730.508 44.08 729.546 42.988 727.622 42.988C726.183 42.988 725.195 43.4213 724.658 44.288C724.12 45.1373 723.852 46.3593 723.852 47.954V55H721.096V35.24H723.852V40.518ZM754.476 39.114C754.32 39.9807 754.078 40.7867 753.748 41.532C753.419 42.26 752.916 42.8753 752.24 43.378C751.582 43.8807 750.68 44.2013 749.536 44.34V55H747.326L746.936 53.154H746.806C746.338 53.882 745.714 54.4193 744.934 54.766C744.154 55.0953 743.322 55.26 742.438 55.26C740.792 55.26 739.526 54.8527 738.642 54.038C737.776 53.2233 737.342 51.932 737.342 50.164V41.012H740.124V49.748C740.124 51.9147 741.069 52.998 742.958 52.998C744.397 52.998 745.394 52.5733 745.948 51.724C746.503 50.8747 746.78 49.6613 746.78 48.084V41.012H749.536V42.52C750.299 42.364 750.81 41.9567 751.07 41.298C751.33 40.6393 751.46 39.816 751.46 38.828H754.294L754.476 39.114ZM747.56 35.344C747.3 35.656 746.936 36.0633 746.468 36.566C746 37.0687 745.498 37.5627 744.96 38.048C744.423 38.5333 743.946 38.932 743.53 39.244H741.71V38.932C741.97 38.6027 742.265 38.2127 742.594 37.762C742.924 37.3113 743.244 36.852 743.556 36.384C743.868 35.8987 744.128 35.4653 744.336 35.084H747.56V35.344ZM761.294 55.26C759.353 55.26 757.793 54.688 756.614 53.544C755.435 52.3827 754.846 50.5627 754.846 48.084C754.846 46.3507 755.132 44.9467 755.704 43.872C756.276 42.7973 757.065 42.0087 758.07 41.506C759.075 40.986 760.219 40.726 761.502 40.726C762.282 40.726 763.01 40.8127 763.686 40.986C764.379 41.142 764.951 41.324 765.402 41.532L764.57 43.768C764.085 43.5773 763.565 43.4127 763.01 43.274C762.473 43.1353 761.961 43.066 761.476 43.066C758.945 43.066 757.68 44.73 757.68 48.058C757.68 49.6527 757.992 50.866 758.616 51.698C759.24 52.53 760.159 52.946 761.372 52.946C762.152 52.946 762.837 52.8593 763.426 52.686C764.033 52.5127 764.587 52.2873 765.09 52.01V54.402C764.587 54.6967 764.041 54.9133 763.452 55.052C762.863 55.1907 762.143 55.26 761.294 55.26ZM780.196 53.024C780.56 53.024 780.933 52.998 781.314 52.946C781.695 52.8767 782.025 52.79 782.302 52.686V54.766C781.99 54.9047 781.583 55.0173 781.08 55.104C780.595 55.208 780.101 55.26 779.598 55.26C778.835 55.26 778.133 55.13 777.492 54.87C776.851 54.61 776.339 54.1593 775.958 53.518C775.594 52.8767 775.412 51.984 775.412 50.84V43.092H773.462V41.844L775.516 40.804L776.478 37.84H778.168V40.986H782.172V43.092H778.168V50.788C778.168 51.5507 778.35 52.114 778.714 52.478C779.095 52.842 779.589 53.024 780.196 53.024ZM787.861 40.518C787.861 40.9687 787.844 41.4107 787.809 41.844C787.775 42.26 787.74 42.6067 787.705 42.884H787.887C788.338 42.156 788.936 41.6187 789.681 41.272C790.444 40.9253 791.267 40.752 792.151 40.752C793.798 40.752 795.055 41.1593 795.921 41.974C796.805 42.7887 797.247 44.0887 797.247 45.874V55H794.517V46.264C794.517 44.08 793.555 42.988 791.631 42.988C790.193 42.988 789.205 43.4213 788.667 44.288C788.13 45.1373 787.861 46.3593 787.861 47.954V55H785.105V35.24H787.861V40.518ZM806.916 40.726C808.667 40.726 809.976 41.116 810.842 41.896C811.726 42.6587 812.168 43.8633 812.168 45.51V55H810.218L809.672 53.05H809.568C808.962 53.8127 808.32 54.376 807.644 54.74C806.986 55.0867 806.067 55.26 804.888 55.26C803.623 55.26 802.574 54.922 801.742 54.246C800.91 53.5527 800.494 52.478 800.494 51.022C800.494 49.6007 801.032 48.5173 802.106 47.772C803.181 47.0267 804.836 46.6193 807.072 46.55L809.464 46.472V45.692C809.464 44.6693 809.23 43.95 808.762 43.534C808.294 43.1007 807.636 42.884 806.786 42.884C806.076 42.884 805.391 42.988 804.732 43.196C804.074 43.404 803.441 43.6553 802.834 43.95L801.95 41.948C802.609 41.6013 803.363 41.3153 804.212 41.09C805.079 40.8473 805.98 40.726 806.916 40.726ZM807.566 48.318C805.972 48.3873 804.862 48.656 804.238 49.124C803.632 49.5747 803.328 50.216 803.328 51.048C803.328 51.776 803.545 52.3047 803.978 52.634C804.412 52.9633 804.975 53.128 805.668 53.128C806.743 53.128 807.636 52.8247 808.346 52.218C809.074 51.6113 809.438 50.7013 809.438 49.488V48.266L807.566 48.318ZM823.51 40.726C825.139 40.726 826.387 41.1333 827.254 41.948C828.121 42.7627 828.554 44.0713 828.554 45.874V55H825.824V46.264C825.824 44.08 824.862 42.988 822.938 42.988C821.499 42.988 820.511 43.4127 819.974 44.262C819.437 45.1113 819.168 46.3333 819.168 47.928V55H816.412V40.986H818.596L818.986 42.858H819.142C819.593 42.13 820.208 41.5927 820.988 41.246C821.785 40.8993 822.626 40.726 823.51 40.726ZM835.545 40.518C835.545 40.9687 835.528 41.4107 835.493 41.844C835.458 42.26 835.424 42.6067 835.389 42.884H835.571C836.022 42.156 836.62 41.6187 837.365 41.272C838.128 40.9253 838.951 40.752 839.835 40.752C841.482 40.752 842.738 41.1593 843.605 41.974C844.489 42.7887 844.931 44.0887 844.931 45.874V55H842.201V46.264C842.201 44.08 841.239 42.988 839.315 42.988C837.876 42.988 836.888 43.4213 836.351 44.288C835.814 45.1373 835.545 46.3593 835.545 47.954V55H832.789V35.24H835.545V40.518ZM860.964 53.024C861.328 53.024 861.7 52.998 862.082 52.946C862.463 52.8767 862.792 52.79 863.07 52.686V54.766C862.758 54.9047 862.35 55.0173 861.848 55.104C861.362 55.208 860.868 55.26 860.366 55.26C859.603 55.26 858.901 55.13 858.26 54.87C857.618 54.61 857.107 54.1593 856.726 53.518C856.362 52.8767 856.18 51.984 856.18 50.84V43.092H854.23V41.844L856.284 40.804L857.246 37.84H858.936V40.986H862.94V43.092H858.936V50.788C858.936 51.5507 859.118 52.114 859.482 52.478C859.863 52.842 860.357 53.024 860.964 53.024ZM878.223 47.98C878.223 50.3027 877.625 52.0967 876.429 53.362C875.233 54.6273 873.621 55.26 871.593 55.26C870.328 55.26 869.201 54.974 868.213 54.402C867.242 53.83 866.471 53.0067 865.899 51.932C865.344 50.84 865.067 49.5227 865.067 47.98C865.067 45.6573 865.656 43.872 866.835 42.624C868.014 41.3587 869.626 40.726 871.671 40.726C872.954 40.726 874.08 41.012 875.051 41.584C876.039 42.1387 876.81 42.9533 877.365 44.028C877.937 45.1027 878.223 46.42 878.223 47.98ZM867.901 47.98C867.901 49.5573 868.196 50.788 868.785 51.672C869.392 52.556 870.345 52.998 871.645 52.998C872.945 52.998 873.89 52.556 874.479 51.672C875.086 50.788 875.389 49.5573 875.389 47.98C875.389 46.3853 875.086 45.1633 874.479 44.314C873.872 43.4473 872.919 43.014 871.619 43.014C870.319 43.014 869.374 43.4473 868.785 44.314C868.196 45.1633 867.901 46.3853 867.901 47.98ZM887.151 40.726C888.901 40.726 890.21 41.116 891.077 41.896C891.961 42.6587 892.403 43.8633 892.403 45.51V55H890.453L889.907 53.05H889.803C889.196 53.8127 888.555 54.376 887.879 54.74C887.22 55.0867 886.301 55.26 885.123 55.26C883.857 55.26 882.809 54.922 881.977 54.246C881.145 53.5527 880.729 52.478 880.729 51.022C880.729 49.6007 881.266 48.5173 882.341 47.772C883.415 47.0267 885.071 46.6193 887.307 46.55L889.699 46.472V45.692C889.699 44.6693 889.465 43.95 888.997 43.534C888.529 43.1007 887.87 42.884 887.021 42.884C886.31 42.884 885.625 42.988 884.967 43.196C884.308 43.404 883.675 43.6553 883.069 43.95L882.185 41.948C882.843 41.6013 883.597 41.3153 884.447 41.09C885.313 40.8473 886.215 40.726 887.151 40.726ZM887.801 48.318C886.206 48.3873 885.097 48.656 884.473 49.124C883.866 49.5747 883.563 50.216 883.563 51.048C883.563 51.776 883.779 52.3047 884.213 52.634C884.646 52.9633 885.209 53.128 885.903 53.128C886.977 53.128 887.87 52.8247 888.581 52.218C889.309 51.6113 889.673 50.7013 889.673 49.488V48.266L887.801 48.318ZM891.077 35.344C890.817 35.656 890.453 36.0633 889.985 36.566C889.517 37.0687 889.014 37.5627 888.477 38.048C887.939 38.5333 887.463 38.932 887.047 39.244H885.227V38.932C885.487 38.6027 885.781 38.2127 886.111 37.762C886.44 37.3113 886.761 36.852 887.073 36.384C887.385 35.8987 887.645 35.4653 887.853 35.084H891.077V35.344ZM903.744 40.726C905.374 40.726 906.622 41.1333 907.488 41.948C908.355 42.7627 908.788 44.0713 908.788 45.874V55H906.058V46.264C906.058 44.08 905.096 42.988 903.172 42.988C901.734 42.988 900.746 43.4127 900.208 44.262C899.671 45.1113 899.402 46.3333 899.402 47.928V55H896.646V40.986H898.83L899.22 42.858H899.376C899.827 42.13 900.442 41.5927 901.222 41.246C902.02 40.8993 902.86 40.726 903.744 40.726Z" fill="#323232"/>
<path d="M961 45.4196L911 1H1391L1441 45.4196L1391 89.8393H911L961 45.4196Z" fill="#117182" stroke="#117182"/>
<path d="M1005.95 40.2675C1005.95 41.5328 1005.58 42.5382 1004.86 43.2835C1004.15 44.0288 1003.22 44.5228 1002.07 44.7655V44.8695C1003.55 45.0428 1004.66 45.5108 1005.4 46.2735C1006.15 47.0188 1006.52 48.0068 1006.52 49.2375C1006.52 50.3122 1006.26 51.2742 1005.74 52.1235C1005.24 52.9555 1004.45 53.6142 1003.37 54.0995C1002.32 54.5675 1000.96 54.8015 999.292 54.8015C998.304 54.8015 997.385 54.7235 996.536 54.5675C995.687 54.4115 994.881 54.1515 994.118 53.7875V51.2915C994.898 51.6902 995.73 51.9935 996.614 52.2015C997.515 52.4095 998.373 52.5135 999.188 52.5135C1000.77 52.5135 1001.9 52.2188 1002.59 51.6295C1003.29 51.0228 1003.63 50.1822 1003.63 49.1075C1003.63 48.0675 1003.22 47.3048 1002.39 46.8195C1001.55 46.3342 1000.31 46.0915 998.642 46.0915H996.952V43.8295H998.668C1000.25 43.8295 1001.39 43.5348 1002.1 42.9455C1002.81 42.3562 1003.17 41.5848 1003.17 40.6315C1003.17 39.7995 1002.89 39.1582 1002.33 38.7075C1001.8 38.2395 1001.02 38.0055 999.994 38.0055C999.041 38.0055 998.209 38.1528 997.498 38.4475C996.805 38.7422 996.155 39.0975 995.548 39.5135L994.196 37.6155C994.872 37.0955 995.695 36.6535 996.666 36.2895C997.654 35.9082 998.789 35.7175 1000.07 35.7175C1002 35.7175 1003.45 36.1422 1004.44 36.9915C1005.45 37.8235 1005.95 38.9155 1005.95 40.2675ZM1009.65 53.0075C1009.65 52.3315 1009.81 51.8548 1010.14 51.5775C1010.49 51.3002 1010.91 51.1615 1011.41 51.1615C1011.9 51.1615 1012.32 51.3002 1012.66 51.5775C1013.03 51.8548 1013.21 52.3315 1013.21 53.0075C1013.21 53.6835 1013.03 54.1688 1012.66 54.4635C1012.32 54.7582 1011.9 54.9055 1011.41 54.9055C1010.91 54.9055 1010.49 54.7582 1010.14 54.4635C1009.81 54.1688 1009.65 53.6835 1009.65 53.0075ZM1030.45 54.5415H1027.64V38.3955H1022.08V35.9775H1036.02V38.3955H1030.45V54.5415ZM1041.31 40.0595C1041.31 40.5102 1041.29 40.9522 1041.25 41.3855C1041.22 41.8015 1041.19 42.1482 1041.15 42.4255H1041.33C1041.78 41.6975 1042.38 41.1602 1043.13 40.8135C1043.89 40.4668 1044.71 40.2935 1045.6 40.2935C1047.24 40.2935 1048.5 40.7008 1049.37 41.5155C1050.25 42.3302 1050.69 43.6302 1050.69 45.4155V54.5415H1047.96V45.8055C1047.96 43.6215 1047 42.5295 1045.08 42.5295C1043.64 42.5295 1042.65 42.9628 1042.11 43.8295C1041.58 44.6788 1041.31 45.9008 1041.31 47.4955V54.5415H1038.55V34.7815H1041.31V40.0595ZM1060.36 40.2675C1062.11 40.2675 1063.42 40.6575 1064.29 41.4375C1065.17 42.2002 1065.61 43.4048 1065.61 45.0515V54.5415H1063.66L1063.12 52.5915H1063.01C1062.41 53.3542 1061.77 53.9175 1061.09 54.2815C1060.43 54.6282 1059.51 54.8015 1058.33 54.8015C1057.07 54.8015 1056.02 54.4635 1055.19 53.7875C1054.36 53.0942 1053.94 52.0195 1053.94 50.5635C1053.94 49.1422 1054.48 48.0588 1055.55 47.3135C1056.63 46.5682 1058.28 46.1608 1060.52 46.0915L1062.91 46.0135V45.2335C1062.91 44.2108 1062.68 43.4915 1062.21 43.0755C1061.74 42.6422 1061.08 42.4255 1060.23 42.4255C1059.52 42.4255 1058.84 42.5295 1058.18 42.7375C1057.52 42.9455 1056.89 43.1968 1056.28 43.4915L1055.4 41.4895C1056.05 41.1428 1056.81 40.8568 1057.66 40.6315C1058.52 40.3888 1059.43 40.2675 1060.36 40.2675ZM1061.01 47.8595C1059.42 47.9288 1058.31 48.1975 1057.68 48.6655C1057.08 49.1162 1056.77 49.7575 1056.77 50.5895C1056.77 51.3175 1056.99 51.8462 1057.42 52.1755C1057.86 52.5048 1058.42 52.6695 1059.11 52.6695C1060.19 52.6695 1061.08 52.3662 1061.79 51.7595C1062.52 51.1528 1062.88 50.2428 1062.88 49.0295V47.8075L1061.01 47.8595ZM1076.96 40.2675C1078.58 40.2675 1079.83 40.6748 1080.7 41.4895C1081.57 42.3042 1082 43.6128 1082 45.4155V54.5415H1079.27V45.8055C1079.27 43.6215 1078.31 42.5295 1076.38 42.5295C1074.94 42.5295 1073.96 42.9542 1073.42 43.8035C1072.88 44.6528 1072.61 45.8748 1072.61 47.4695V54.5415H1069.86V40.5275H1072.04L1072.43 42.3995H1072.59C1073.04 41.6715 1073.65 41.1342 1074.43 40.7875C1075.23 40.4408 1076.07 40.2675 1076.96 40.2675ZM1088.99 40.0595C1088.99 40.5102 1088.97 40.9522 1088.94 41.3855C1088.9 41.8015 1088.87 42.1482 1088.83 42.4255H1089.02C1089.47 41.6975 1090.06 41.1602 1090.81 40.8135C1091.57 40.4668 1092.4 40.2935 1093.28 40.2935C1094.93 40.2935 1096.18 40.7008 1097.05 41.5155C1097.93 42.3302 1098.38 43.6302 1098.38 45.4155V54.5415H1095.65V45.8055C1095.65 43.6215 1094.68 42.5295 1092.76 42.5295C1091.32 42.5295 1090.33 42.9628 1089.8 43.8295C1089.26 44.6788 1088.99 45.9008 1088.99 47.4955V54.5415H1086.23V34.7815H1088.99V40.0595ZM1114.41 52.5655C1114.77 52.5655 1115.15 52.5395 1115.53 52.4875C1115.91 52.4182 1116.24 52.3315 1116.52 52.2275V54.3075C1116.2 54.4462 1115.8 54.5588 1115.29 54.6455C1114.81 54.7495 1114.31 54.8015 1113.81 54.8015C1113.05 54.8015 1112.35 54.6715 1111.71 54.4115C1111.06 54.1515 1110.55 53.7008 1110.17 53.0595C1109.81 52.4182 1109.63 51.5255 1109.63 50.3815V42.6335H1107.68V41.3855L1109.73 40.3455L1110.69 37.3815H1112.38V40.5275H1116.39V42.6335H1112.38V50.3295C1112.38 51.0922 1112.56 51.6555 1112.93 52.0195C1113.31 52.3835 1113.8 52.5655 1114.41 52.5655ZM1131.67 47.5215C1131.67 49.8442 1131.07 51.6382 1129.87 52.9035C1128.68 54.1688 1127.07 54.8015 1125.04 54.8015C1123.77 54.8015 1122.65 54.5155 1121.66 53.9435C1120.69 53.3715 1119.92 52.5482 1119.34 51.4735C1118.79 50.3815 1118.51 49.0642 1118.51 47.5215C1118.51 45.1988 1119.1 43.4135 1120.28 42.1655C1121.46 40.9002 1123.07 40.2675 1125.12 40.2675C1126.4 40.2675 1127.53 40.5535 1128.5 41.1255C1129.48 41.6802 1130.26 42.4948 1130.81 43.5695C1131.38 44.6442 1131.67 45.9615 1131.67 47.5215ZM1121.35 47.5215C1121.35 49.0988 1121.64 50.3295 1122.23 51.2135C1122.84 52.0975 1123.79 52.5395 1125.09 52.5395C1126.39 52.5395 1127.33 52.0975 1127.92 51.2135C1128.53 50.3295 1128.83 49.0988 1128.83 47.5215C1128.83 45.9268 1128.53 44.7048 1127.92 43.8555C1127.32 42.9888 1126.36 42.5555 1125.06 42.5555C1123.76 42.5555 1122.82 42.9888 1122.23 43.8555C1121.64 44.7048 1121.35 45.9268 1121.35 47.5215ZM1140.6 40.2675C1142.35 40.2675 1143.66 40.6575 1144.52 41.4375C1145.41 42.2002 1145.85 43.4048 1145.85 45.0515V54.5415H1143.9L1143.35 52.5915H1143.25C1142.64 53.3542 1142 53.9175 1141.32 54.2815C1140.67 54.6282 1139.75 54.8015 1138.57 54.8015C1137.3 54.8015 1136.25 54.4635 1135.42 53.7875C1134.59 53.0942 1134.17 52.0195 1134.17 50.5635C1134.17 49.1422 1134.71 48.0588 1135.79 47.3135C1136.86 46.5682 1138.52 46.1608 1140.75 46.0915L1143.14 46.0135V45.2335C1143.14 44.2108 1142.91 43.4915 1142.44 43.0755C1141.97 42.6422 1141.32 42.4255 1140.47 42.4255C1139.76 42.4255 1139.07 42.5295 1138.41 42.7375C1137.75 42.9455 1137.12 43.1968 1136.51 43.4915L1135.63 41.4895C1136.29 41.1428 1137.04 40.8568 1137.89 40.6315C1138.76 40.3888 1139.66 40.2675 1140.6 40.2675ZM1141.25 47.8595C1139.65 47.9288 1138.54 48.1975 1137.92 48.6655C1137.31 49.1162 1137.01 49.7575 1137.01 50.5895C1137.01 51.3175 1137.22 51.8462 1137.66 52.1755C1138.09 52.5048 1138.65 52.6695 1139.35 52.6695C1140.42 52.6695 1141.32 52.3662 1142.03 51.7595C1142.75 51.1528 1143.12 50.2428 1143.12 49.0295V47.8075L1141.25 47.8595ZM1144.52 34.8855C1144.26 35.1975 1143.9 35.6048 1143.43 36.1075C1142.96 36.6102 1142.46 37.1042 1141.92 37.5895C1141.38 38.0748 1140.91 38.4735 1140.49 38.7855H1138.67V38.4735C1138.93 38.1442 1139.23 37.7542 1139.56 37.3035C1139.89 36.8528 1140.21 36.3935 1140.52 35.9255C1140.83 35.4402 1141.09 35.0068 1141.3 34.6255H1144.52V34.8855ZM1157.19 40.2675C1158.82 40.2675 1160.07 40.6748 1160.93 41.4895C1161.8 42.3042 1162.23 43.6128 1162.23 45.4155V54.5415H1159.5V45.8055C1159.5 43.6215 1158.54 42.5295 1156.62 42.5295C1155.18 42.5295 1154.19 42.9542 1153.65 43.8035C1153.12 44.6528 1152.85 45.8748 1152.85 47.4695V54.5415H1150.09V40.5275H1152.28L1152.67 42.3995H1152.82C1153.27 41.6715 1153.89 41.1342 1154.67 40.7875C1155.46 40.4408 1156.31 40.2675 1157.19 40.2675ZM1178.03 54.8015C1176.33 54.8015 1174.97 54.2035 1173.95 53.0075C1172.93 51.8115 1172.42 50.0435 1172.42 47.7035C1172.42 45.3115 1172.94 43.5262 1173.98 42.3475C1175.02 41.1515 1176.38 40.5535 1178.06 40.5535C1179.13 40.5535 1180.01 40.7528 1180.68 41.1515C1181.36 41.5502 1181.91 42.0355 1182.32 42.6075H1182.48C1182.43 42.3475 1182.37 41.9748 1182.32 41.4895C1182.29 41.0042 1182.27 40.6055 1182.27 40.2935V38.9675H1177.2V37.0175H1182.27V34.7815H1185.03V37.0175H1187V38.9675H1185.03V54.5415H1182.84L1182.37 52.6695H1182.27C1181.85 53.2762 1181.31 53.7875 1180.63 54.2035C1179.96 54.6022 1179.09 54.8015 1178.03 54.8015ZM1178.71 52.5395C1180.04 52.5395 1180.99 52.1755 1181.54 51.4475C1182.1 50.7195 1182.37 49.6188 1182.37 48.1455V47.7295C1182.37 46.1348 1182.11 44.9215 1181.57 44.0895C1181.05 43.2402 1180.08 42.8155 1178.66 42.8155C1177.53 42.8155 1176.68 43.2575 1176.11 44.1415C1175.54 45.0082 1175.25 46.2128 1175.25 47.7555C1175.25 49.2982 1175.54 50.4855 1176.11 51.3175C1176.7 52.1322 1177.56 52.5395 1178.71 52.5395ZM1201.85 47.5215C1201.85 49.8442 1201.25 51.6382 1200.05 52.9035C1198.86 54.1688 1197.25 54.8015 1195.22 54.8015C1193.95 54.8015 1192.83 54.5155 1191.84 53.9435C1190.87 53.3715 1190.1 52.5482 1189.52 51.4735C1188.97 50.3815 1188.69 49.0642 1188.69 47.5215C1188.69 45.1988 1189.28 43.4135 1190.46 42.1655C1191.64 40.9002 1193.25 40.2675 1195.3 40.2675C1197.2 40.2675 1198.75 40.8568 1199.92 42.0355C1200.67 41.8102 1201.15 41.3682 1201.38 40.7095C1201.61 40.0508 1201.72 39.2795 1201.72 38.3955H1204.55L1204.73 38.6815C1204.49 39.8948 1204.1 40.9262 1203.56 41.7755C1203.04 42.6248 1202.19 43.2402 1201.02 43.6215C1201.28 44.1588 1201.48 44.7568 1201.61 45.4155C1201.77 46.0568 1201.85 46.7588 1201.85 47.5215ZM1191.53 47.5215C1191.53 49.1682 1191.82 50.4162 1192.41 51.2655C1193 52.1148 1193.95 52.5395 1195.27 52.5395C1196.59 52.5395 1197.54 52.1148 1198.13 51.2655C1198.72 50.4162 1199.01 49.1682 1199.01 47.5215C1199.01 45.8748 1198.71 44.6355 1198.1 43.8035C1197.51 42.9715 1196.56 42.5555 1195.24 42.5555C1193.93 42.5555 1192.97 42.9715 1192.38 43.8035C1191.81 44.6355 1191.53 45.8748 1191.53 47.5215ZM1213.1 40.2675C1214.73 40.2675 1215.98 40.6748 1216.84 41.4895C1217.71 42.3042 1218.14 43.6128 1218.14 45.4155V54.5415H1215.41V45.8055C1215.41 43.6215 1214.45 42.5295 1212.53 42.5295C1211.09 42.5295 1210.1 42.9542 1209.56 43.8035C1209.03 44.6528 1208.76 45.8748 1208.76 47.4695V54.5415H1206V40.5275H1208.19L1208.58 42.3995H1208.73C1209.18 41.6715 1209.8 41.1342 1210.58 40.7875C1211.38 40.4408 1212.22 40.2675 1213.1 40.2675ZM1231.89 40.0595C1231.89 40.5102 1231.87 40.9522 1231.84 41.3855C1231.8 41.8015 1231.77 42.1482 1231.73 42.4255H1231.91C1232.37 41.6975 1232.96 41.1602 1233.71 40.8135C1234.47 40.4668 1235.29 40.2935 1236.18 40.2935C1237.83 40.2935 1239.08 40.7008 1239.95 41.5155C1240.83 42.3302 1241.27 43.6302 1241.27 45.4155V54.5415H1238.54V45.8055C1238.54 43.6215 1237.58 42.5295 1235.66 42.5295C1234.22 42.5295 1233.23 42.9628 1232.69 43.8295C1232.16 44.6788 1231.89 45.9008 1231.89 47.4955V54.5415H1229.13V34.7815H1231.89V40.0595ZM1250.94 40.2675C1252.69 40.2675 1254 40.6575 1254.87 41.4375C1255.75 42.2002 1256.2 43.4048 1256.2 45.0515V54.5415H1254.25L1253.7 52.5915H1253.6C1252.99 53.3542 1252.35 53.9175 1251.67 54.2815C1251.01 54.6282 1250.09 54.8015 1248.92 54.8015C1247.65 54.8015 1246.6 54.4635 1245.77 53.7875C1244.94 53.0942 1244.52 52.0195 1244.52 50.5635C1244.52 49.1422 1245.06 48.0588 1246.13 47.3135C1247.21 46.5682 1248.86 46.1608 1251.1 46.0915L1253.49 46.0135V45.2335C1253.49 44.2108 1253.26 43.4915 1252.79 43.0755C1252.32 42.6422 1251.66 42.4255 1250.81 42.4255C1250.1 42.4255 1249.42 42.5295 1248.76 42.7375C1248.1 42.9455 1247.47 43.1968 1246.86 43.4915L1245.98 41.4895C1246.64 41.1428 1247.39 40.8568 1248.24 40.6315C1249.11 40.3888 1250.01 40.2675 1250.94 40.2675ZM1251.59 47.8595C1250 47.9288 1248.89 48.1975 1248.27 48.6655C1247.66 49.1162 1247.36 49.7575 1247.36 50.5895C1247.36 51.3175 1247.57 51.8462 1248.01 52.1755C1248.44 52.5048 1249 52.6695 1249.7 52.6695C1250.77 52.6695 1251.66 52.3662 1252.37 51.7595C1253.1 51.1528 1253.47 50.2428 1253.47 49.0295V47.8075L1251.59 47.8595ZM1250.14 34.6255C1250.35 35.0068 1250.61 35.4402 1250.92 35.9255C1251.23 36.3935 1251.55 36.8528 1251.88 37.3035C1252.21 37.7542 1252.51 38.1442 1252.79 38.4735V38.7855H1250.94C1250.53 38.4735 1250.05 38.0748 1249.51 37.5895C1248.99 37.1042 1248.49 36.6102 1248.01 36.1075C1247.54 35.6048 1247.18 35.1975 1246.94 34.8855V34.6255H1250.14ZM1267.54 40.2675C1269.17 40.2675 1270.41 40.6748 1271.28 41.4895C1272.15 42.3042 1272.58 43.6128 1272.58 45.4155V54.5415H1269.85V45.8055C1269.85 43.6215 1268.89 42.5295 1266.97 42.5295C1265.53 42.5295 1264.54 42.9542 1264 43.8035C1263.46 44.6528 1263.2 45.8748 1263.2 47.4695V54.5415H1260.44V40.5275H1262.62L1263.01 42.3995H1263.17C1263.62 41.6715 1264.24 41.1342 1265.02 40.7875C1265.81 40.4408 1266.65 40.2675 1267.54 40.2675ZM1281.65 40.2675C1283.51 40.2675 1284.94 40.9695 1285.94 42.3735H1286.07L1286.38 40.5275H1288.62V54.7235C1288.62 56.7168 1288.08 58.2248 1287.01 59.2475C1285.95 60.2702 1284.33 60.7815 1282.15 60.7815C1281.12 60.7815 1280.19 60.7122 1279.34 60.5735C1278.51 60.4348 1277.73 60.2182 1277.02 59.9235V57.5055C1278.51 58.2335 1280.27 58.5975 1282.3 58.5975C1283.45 58.5975 1284.33 58.2682 1284.95 57.6095C1285.58 56.9682 1285.89 56.0582 1285.89 54.8795V54.4115C1285.89 54.1862 1285.9 53.8915 1285.92 53.5275C1285.93 53.1635 1285.95 52.8862 1285.97 52.6955H1285.86C1285.4 53.4235 1284.81 53.9608 1284.1 54.3075C1283.39 54.6368 1282.57 54.8015 1281.65 54.8015C1279.88 54.8015 1278.5 54.1688 1277.49 52.9035C1276.5 51.6208 1276.01 49.8442 1276.01 47.5735C1276.01 45.3202 1276.5 43.5435 1277.49 42.2435C1278.5 40.9262 1279.88 40.2675 1281.65 40.2675ZM1282.22 42.5555C1281.13 42.5555 1280.29 42.9888 1279.7 43.8555C1279.13 44.7222 1278.84 45.9702 1278.84 47.5995C1278.84 49.2288 1279.13 50.4682 1279.7 51.3175C1280.29 52.1668 1281.15 52.5915 1282.28 52.5915C1283.56 52.5915 1284.49 52.2448 1285.08 51.5515C1285.69 50.8408 1285.99 49.6882 1285.99 48.0935V47.5735C1285.99 45.7882 1285.69 44.5055 1285.08 43.7255C1284.48 42.9455 1283.52 42.5555 1282.22 42.5555Z" fill="white"/>
</svg>
